-------------------------------------------------------------------------------
Test set: com.gmail.michzuerch.ui.utils.converters.LocalDateTimeConverterTest
-------------------------------------------------------------------------------
Tests run: 1, Failures: 0, Errors: 0, Skipped: 0, Time elapsed: 0.001 s - in com.gmail.michzuerch.ui.utils.converters.LocalDateTimeConverterTest
